{
  "abi": [
    {
      "anonymous": false,
      "inputs": [
        {
          "indexed": true,
          "internalType": "address",
          "name": "owner",
          "type": "address"
        },
        {
          "indexed": true,
          "internalType": "address",
          "name": "approved",
          "type": "address"
        },
        {
          "indexed": true,
          "internalType": "uint256",
          "name": "tokenId",
          "type": "uint256"
        }
      ],
      "name": "Approval",
      "type": "event"
    },
    {
      "anonymous": false,
      "inputs": [
        {
          "indexed": true,
          "internalType": "address",
          "name": "owner",
          "type": "address"
        },
        {
          "indexed": true,
          "internalType": "address",
          "name": "operator",
          "type": "address"
        },
        {
          "indexed": false,
          "internalType": "bool",
          "name": "approved",
          "type": "bool"
        }
      ],
      "name": "ApprovalForAll",
      "type": "event"
    },
    {
      "anonymous": false,
      "inputs": [
        {
          "indexed": true,
          "internalType": "address",
          "name": "from",
          "type": "address"
        },
        {
          "indexed": true,
          "internalType": "address",
          "name": "to",
          "type": "address"
        },
        {
          "indexed": true,
          "internalType": "uint256",
          "name": "tokenId",
          "type": "uint256"
        }
      ],
      "name": "Transfer",
      "type": "event"
    },
    {
      "inputs": [
        {
          "internalType": "address",
          "name": "to",
          "type": "address"
        },
        {
          "internalType": "uint256",
          "name": "tokenId",
          "type": "uint256"
        }
      ],
      "name": "approve",
      "outputs": [],
      "stateMutability": "nonpayable",
      "type": "function"
    },
    {
      "inputs": [
        {
          "internalType": "address",
          "name": "owner",
          "type": "address"
        }
      ],
      "name": "balanceOf",
      "outputs": [
        {
          "internalType": "uint256",
          "name": "balance",
          "type": "uint256"
        }
      ],
      "stateMutability": "view",
      "type": "function"
    },
    {
      "inputs": [
        {
          "internalType": "uint256",
          "name": "tokenId",
          "type": "uint256"
        }
      ],
      "name": "getApproved",
      "outputs": [
        {
          "internalType": "address",
          "name": "operator",
          "type": "address"
        }
      ],
      "stateMutability": "view",
      "type": "function"
    },
    {
      "inputs": [
        {
          "internalType": "address",
          "name": "owner",
          "type": "address"
        },
        {
          "internalType": "address",
          "name": "operator",
          "type": "address"
        }
      ],
      "name": "isApprovedForAll",
      "outputs": [
        {
          "internalType": "bool",
          "name": "",
          "type": "bool"
        }
      ],
      "stateMutability": "view",
      "type": "function"
    },
    {
      "inputs": [
        {
          "internalType": "uint256",
          "name": "tokenId",
          "type": "uint256"
        }
      ],
      "name": "ownerOf",
      "outputs": [
        {
          "internalType": "address",
          "name": "owner",
          "type": "address"
        }
      ],
      "stateMutability": "view",
      "type": "function"
    },
    {
      "inputs": [
        {
          "internalType": "address",
          "name": "from",
          "type": "address"
        },
        {
          "internalType": "address",
          "name": "to",
          "type": "address"
        },
        {
          "internalType": "uint256",
          "name": "tokenId",
          "type": "uint256"
        }
      ],
      "name": "safeTransferFrom",
      "outputs": [],
      "stateMutability": "nonpayable",
      "type": "function"
    },
    {
      "inputs": [
        {
          "internalType": "address",
          "name": "from",
          "type": "address"
        },
        {
          "internalType": "address",
          "name": "to",
          "type": "address"
        },
        {
          "internalType": "uint256",
          "name": "tokenId",
          "type": "uint256"
        },
        {
          "internalType": "bytes",
          "name": "data",
          "type": "bytes"
        }
      ],
      "name": "safeTransferFrom",
      "outputs": [],
      "stateMutability": "nonpayable",
      "type": "function"
    },
    {
      "inputs": [
        {
          "internalType": "address",
          "name": "operator",
          "type": "address"
        },
        {
          "internalType": "bool",
          "name": "_approved",
          "type": "bool"
        }
      ],
      "name": "setApprovalForAll",
      "outputs": [],
      "stateMutability": "nonpayable",
      "type": "function"
    },
    {
      "inputs": [
        {
          "internalType": "bytes4",
          "name": "interfaceId",
          "type": "bytes4"
        }
      ],
      "name": "supportsInterface",
      "outputs": [
        {
          "internalType": "bool",
          "name": "",
          "type": "bool"
        }
      ],
      "stateMutability": "view",
      "type": "function"
    },
    {
      "inputs": [
        {
          "internalType": "address",
          "name": "from",
          "type": "address"
        },
        {
          "internalType": "address",
          "name": "to",
          "type": "address"
        },
        {
          "internalType": "uint256",
          "name": "tokenId",
          "type": "uint256"
        }
      ],
      "name": "transferFrom",
      "outputs": [],
      "stateMutability": "nonpayable",
      "type": "function"
    }
  ],
  "bytecode": {
    "object": "0x",
    "sourceMap": "",
    "linkReferences": {}
  },
  "deployedBytecode": {
    "object": "0x",
    "sourceMap": "",
    "linkReferences": {}
  },
  "methodIdentifiers": {
    "approve(address,uint256)": "095ea7b3",
    "balanceOf(address)": "70a08231",
    "getApproved(uint256)": "081812fc",
    "isApprovedForAll(address,address)": "e985e9c5",
    "ownerOf(uint256)": "6352211e",
    "safeTransferFrom(address,address,uint256)": "42842e0e",
    "safeTransferFrom(address,address,uint256,bytes)": "b88d4fde",
    "setApprovalForAll(address,bool)": "a22cb465",
    "supportsInterface(bytes4)": "01ffc9a7",
    "transferFrom(address,address,uint256)": "23b872dd"
  },
  "ast": {
    "absolutePath": "lib/openzeppelin-contracts/contracts/token/ERC721/IERC721.sol",
    "id": 22523,
    "exportedSymbols": {
      "IERC165": [
        23181
      ],
      "IERC721": [
        22522
      ]
    },
    "nodeType": "SourceUnit",
    "src": "108:4640:11",
    "nodes": [
      {
        "id": 22408,
        "nodeType": "PragmaDirective",
        "src": "108:23:11",
        "literals": [
          "solidity",
          "^",
          "0.8",
          ".0"
        ]
      },
      {
        "id": 22409,
        "nodeType": "ImportDirective",
        "src": "133:47:11",
        "absolutePath": "lib/openzeppelin-contracts/contracts/utils/introspection/IERC165.sol",
        "file": "../../utils/introspection/IERC165.sol",
        "nameLocation": "-1:-1:-1",
        "scope": 22523,
        "sourceUnit": 23182,
        "symbolAliases": [],
        "unitAlias": ""
      },
      {
        "id": 22522,
        "nodeType": "ContractDefinition",
        "src": "250:4497:11",
        "nodes": [
          {
            "id": 22421,
            "nodeType": "EventDefinition",
            "src": "378:82:11",
            "anonymous": false,
            "documentation": {
              "id": 22413,
              "nodeType": "StructuredDocumentation",
              "src": "285:88:11",
              "text": " @dev Emitted when `tokenId` token is transferred from `from` to `to`."
            },
            "name": "Transfer",
            "nameLocation": "384:8:11",
            "parameters": {
              "id": 22420,
              "nodeType": "ParameterList",
              "parameters": [
                {
                  "constant": false,
                  "id": 22415,
                  "indexed": true,
                  "mutability": "mutable",
                  "name": "from",
                  "nameLocation": "409:4:11",
                  "nodeType": "VariableDeclaration",
                  "scope": 22421,
                  "src": "393:20:11",
                  "stateVariable": false,
                  "storageLocation": "default",
                  "typeDescriptions": {
                    "typeIdentifier": "t_address",
                    "typeString": "address"
                  },
                  "typeName": {
                    "id": 22414,
                    "name": "address",
                    "nodeType": "ElementaryTypeName",
                    "src": "393:7:11",
                    "stateMutability": "nonpayable",
                    "typeDescriptions": {
                      "typeIdentifier": "t_address",
                      "typeString": "address"
                    }
                  },
                  "visibility": "internal"
                },
                {
                  "constant": false,
                  "id": 22417,
                  "indexed": true,
                  "mutability": "mutable",
                  "name": "to",
                  "nameLocation": "431:2:11",
                  "nodeType": "VariableDeclaration",
                  "scope": 22421,
                  "src": "415:18:11",
                  "stateVariable": false,
                  "storageLocation": "default",
                  "typeDescriptions": {
                    "typeIdentifier": "t_address",
                    "typeString": "address"
                  },
                  "typeName": {
                    "id": 22416,
                    "name": "address",
                    "nodeType": "ElementaryTypeName",
                    "src": "415:7:11",
                    "stateMutability": "nonpayable",
                    "typeDescriptions": {
                      "typeIdentifier": "t_address",
                      "typeString": "address"
                    }
                  },
                  "visibility": "internal"
                },
                {
                  "constant": false,
                  "id": 22419,
                  "indexed": true,
                  "mutability": "mutable",
                  "name": "tokenId",
                  "nameLocation": "451:7:11",
                  "nodeType": "VariableDeclaration",
                  "scope": 22421,
                  "src": "435:23:11",
                  "stateVariable": false,
                  "storageLocation": "default",
                  "typeDescriptions": {
                    "typeIdentifier": "t_uint256",
                    "typeString": "uint256"
                  },
                  "typeName": {
                    "id": 22418,
                    "name": "uint256",
                    "nodeType": "ElementaryTypeName",
                    "src": "435:7:11",
                    "typeDescriptions": {
                      "typeIdentifier": "t_uint256",
                      "typeString": "uint256"
                    }
                  },
                  "visibility": "internal"
                }
              ],
              "src": "392:67:11"
            }
          },
          {
            "id": 22430,
            "nodeType": "EventDefinition",
            "src": "565:89:11",
            "anonymous": false,
            "documentation": {
              "id": 22422,
              "nodeType": "StructuredDocumentation",
              "src": "466:94:11",
              "text": " @dev Emitted when `owner` enables `approved` to manage the `tokenId` token."
            },
            "name": "Approval",
            "nameLocation": "571:8:11",
            "parameters": {
              "id": 22429,
              "nodeType": "ParameterList",
              "parameters": [
                {
                  "constant": false,
                  "id": 22424,
                  "indexed": true,
                  "mutability": "mutable",
                  "name": "owner",
                  "nameLocation": "596:5:11",
                  "nodeType": "VariableDeclaration",
                  "scope": 22430,
                  "src": "580:21:11",
                  "stateVariable": false,
                  "storageLocation": "default",
                  "typeDescriptions": {
                    "typeIdentifier": "t_address",
                    "typeString": "address"
                  },
                  "typeName": {
                    "id": 22423,
                    "name": "address",
                    "nodeType": "ElementaryTypeName",
                    "src": "580:7:11",
                    "stateMutability": "nonpayable",
                    "typeDescriptions": {
                      "typeIdentifier": "t_address",
                      "typeString": "address"
                    }
                  },
                  "visibility": "internal"
                },
                {
                  "constant": false,
                  "id": 22426,
                  "indexed": true,
                  "mutability": "mutable",
                  "name": "approved",
                  "nameLocation": "619:8:11",
                  "nodeType": "VariableDeclaration",
                  "scope": 22430,
                  "src": "603:24:11",
                  "stateVariable": false,
                  "storageLocation": "default",
                  "typeDescriptions": {
                    "typeIdentifier": "t_address",
                    "typeString": "address"
                  },
                  "typeName": {
                    "id": 22425,
                    "name": "address",
                    "nodeType": "ElementaryTypeName",
                    "src": "603:7:11",
                    "stateMutability": "nonpayable",
                    "typeDescriptions": {
                      "typeIdentifier": "t_address",
                      "typeString": "address"
                    }
                  },
                  "visibility": "internal"
                },
                {
                  "constant": false,
                  "id": 22428,
                  "indexed": true,
                  "mutability": "mutable",
                  "name": "tokenId",
                  "nameLocation": "645:7:11",
                  "nodeType": "VariableDeclaration",
                  "scope": 22430,
                  "src": "629:23:11",
                  "stateVariable": false,
                  "storageLocation": "default",
                  "typeDescriptions": {
                    "typeIdentifier": "t_uint256",
                    "typeString": "uint256"
                  },
                  "typeName": {
                    "id": 22427,
                    "name": "uint256",
                    "nodeType": "ElementaryTypeName",
                    "src": "629:7:11",
                    "typeDescriptions": {
                      "typeIdentifier": "t_uint256",
                      "typeString": "uint256"
                    }
                  },
                  "visibility": "internal"
                }
              ],
              "src": "579:74:11"
            }
          },
          {
            "id": 22439,
            "nodeType": "EventDefinition",
            "src": "782:85:11",
            "anonymous": false,
            "documentation": {
              "id": 22431,
              "nodeType": "StructuredDocumentation",
              "src": "660:117:11",
              "text": " @dev Emitted when `owner` enables or disables (`approved`) `operator` to manage all of its assets."
            },
            "name": "ApprovalForAll",
            "nameLocation": "788:14:11",
            "parameters": {
              "id": 22438,
              "nodeType": "ParameterList",
              "parameters": [
                {
                  "constant": false,
                  "id": 22433,
                  "indexed": true,
                  "mutability": "mutable",
                  "name": "owner",
                  "nameLocation": "819:5:11",
                  "nodeType": "VariableDeclaration",
                  "scope": 22439,
                  "src": "803:21:11",
                  "stateVariable": false,
                  "storageLocation": "default",
                  "typeDescriptions": {
                    "typeIdentifier": "t_address",
                    "typeString": "address"
                  },
                  "typeName": {
                    "id": 22432,
                    "name": "address",
                    "nodeType": "ElementaryTypeName",
                    "src": "803:7:11",
                    "stateMutability": "nonpayable",
                    "typeDescriptions": {
                      "typeIdentifier": "t_address",
                      "typeString": "address"
                    }
                  },
                  "visibility": "internal"
                },
                {
                  "constant": false,
                  "id": 22435,
                  "indexed": true,
                  "mutability": "mutable",
                  "name": "operator",
                  "nameLocation": "842:8:11",
                  "nodeType": "VariableDeclaration",
                  "scope": 22439,
                  "src": "826:24:11",
                  "stateVariable": false,
                  "storageLocation": "default",
                  "typeDescriptions": {
                    "typeIdentifier": "t_address",
                    "typeString": "address"
                  },
                  "typeName": {
                    "id": 22434,
                    "name": "address",
                    "nodeType": "ElementaryTypeName",
                    "src": "826:7:11",
                    "stateMutability": "nonpayable",
                    "typeDescriptions": {
                      "typeIdentifier": "t_address",
                      "typeString": "address"
                    }
                  },
                  "visibility": "internal"
                },
                {
                  "constant": false,
                  "id": 22437,
                  "indexed": false,
                  "mutability": "mutable",
                  "name": "approved",
                  "nameLocation": "857:8:11",
                  "nodeType": "VariableDeclaration",
                  "scope": 22439,
                  "src": "852:13:11",
                  "stateVariable": false,
                  "storageLocation": "default",
                  "typeDescriptions": {
                    "typeIdentifier": "t_bool",
                    "typeString": "bool"
                  },
                  "typeName": {
                    "id": 22436,
                    "name": "bool",
                    "nodeType": "ElementaryTypeName",
                    "src": "852:4:11",
                    "typeDescriptions": {
                      "typeIdentifier": "t_bool",
                      "typeString": "bool"
                    }
                  },
                  "visibility": "internal"
                }
              ],
              "src": "802:64:11"
            }
          },
          {
            "id": 22447,
            "nodeType": "FunctionDefinition",
            "src": "954:74:11",
            "documentation": {
              "id": 22440,
              "nodeType": "StructuredDocumentation",
              "src": "873:76:11",
              "text": " @dev Returns the number of tokens in ``owner``'s account."
            },
            "functionSelector": "70a08231",
            "implemented": false,
            "kind": "function",
            "modifiers": [],
            "name": "balanceOf",
            "nameLocation": "963:9:11",
            "parameters": {
              "id": 22443,
              "nodeType": "ParameterList",
              "parameters": [
                {
                  "constant": false,
                  "id": 22442,
                  "mutability": "mutable",
                  "name": "owner",
                  "nameLocation": "981:5:11",
                  "nodeType": "VariableDeclaration",
                  "scope": 22447,
                  "src": "973:13:11",
                  "stateVariable": false,
                  "storageLocation": "default",
                  "typeDescriptions": {
                    "typeIdentifier": "t_address",
                    "typeString": "address"
                  },
                  "typeName": {
                    "id": 22441,
                    "name": "address",
                    "nodeType": "ElementaryTypeName",
                    "src": "973:7:11",
                    "stateMutability": "nonpayable",
                    "typeDescriptions": {
                      "typeIdentifier": "t_address",
                      "typeString": "address"
                    }
                  },
                  "visibility": "internal"
                }
              ],
              "src": "972:15:11"
            },
            "returnParameters": {
              "id": 22446,
              "nodeType": "ParameterList",
              "parameters": [
                {
                  "constant": false,
                  "id": 22445,
                  "mutability": "mutable",
                  "name": "balance",
                  "nameLocation": "1019:7:11",
                  "nodeType": "VariableDeclaration",
                  "scope": 22447,
                  "src": "1011:15:11",
                  "stateVariable": false,
                  "storageLocation": "default",
                  "typeDescriptions": {
                    "typeIdentifier": "t_uint256",
                    "typeString": "uint256"
                  },
                  "typeName": {
                    "id": 22444,
                    "name": "uint256",
                    "nodeType": "ElementaryTypeName",
                    "src": "1011:7:11",
                    "typeDescriptions": {
                      "typeIdentifier": "t_uint256",
                      "typeString": "uint256"
                    }
                  },
                  "visibility": "internal"
                }
              ],
              "src": "1010:17:11"
            },
            "scope": 22522,
            "stateMutability": "view",
            "virtual": false,
            "visibility": "external"
          },
          {
            "id": 22455,
            "nodeType": "FunctionDefinition",
            "src": "1170:72:11",
            "documentation": {
              "id": 22448,
              "nodeType": "StructuredDocumentation",
              "src": "1034:131:11",
              "text": " @dev Returns the owner of the `tokenId` token.\n Requirements:\n - `tokenId` must exist."
            },
            "functionSelector": "6352211e",
            "implemented": false,
            "kind": "function",
            "modifiers": [],
            "name": "ownerOf",
            "nameLocation": "1179:7:11",
            "parameters": {
              "id": 22451,
              "nodeType": "ParameterList",
              "parameters": [
                {
                  "constant": false,
                  "id": 22450,
                  "mutability": "mutable",
                  "name": "tokenId",
                  "nameLocation": "1195:7:11",
                  "nodeType": "VariableDeclaration",
                  "scope": 22455,
                  "src": "1187:15:11",
                  "stateVariable": false,
                  "storageLocation": "default",
                  "typeDescriptions": {
                    "typeIdentifier": "t_uint256",
                    "typeString": "uint256"
                  },
                  "typeName": {
                    "id": 22449,
                    "name": "uint256",
                    "nodeType": "ElementaryTypeName",
                    "src": "1187:7:11",
                    "typeDescriptions": {
                      "typeIdentifier": "t_uint256",
                      "typeString": "uint256"
                    }
                  },
                  "visibility": "internal"
                }
              ],
              "src": "1186:17:11"
            },
            "returnParameters": {
              "id": 22454,
              "nodeType": "ParameterList",
              "parameters": [
                {
                  "constant": false,
                  "id": 22453,
                  "mutability": "mutable",
                  "name": "owner",
                  "nameLocation": "1235:5:11",
                  "nodeType": "VariableDeclaration",
                  "scope": 22455,
                  "src": "1227:13:11",
                  "stateVariable": false,
                  "storageLocation": "default",
                  "typeDescriptions": {
                    "typeIdentifier": "t_address",
                    "typeString": "address"
                  },
                  "typeName": {
                    "id": 22452,
                    "name": "address",
                    "nodeType": "ElementaryTypeName",
                    "src": "1227:7:11",
                    "stateMutability": "nonpayable",
                    "typeDescriptions": {
                      "typeIdentifier": "t_address",
                      "typeString": "address"
                    }
                  },
                  "visibility": "internal"
                }
              ],
              "src": "1226:15:11"
            },
            "scope": 22522,
            "stateMutability": "view",
            "virtual": false,
            "visibility": "external"
          },
          {
            "id": 22467,
            "nodeType": "FunctionDefinition",
            "src": "1809:137:11",
            "documentation": {
              "id": 22456,
              "nodeType": "StructuredDocumentation",
              "src": "1248:556:11",
              "text": " @dev Safely transfers `tokenId` token from `from` to `to`.\n Requirements:\n - `from` cannot be the zero address.\n - `to` cannot be the zero address.\n - `tokenId` token must exist and be owned by `from`.\n - If the caller is not `from`, it must be approved to move this token by either {approve} or {setApprovalForAll}.\n - If `to` refers to a smart contract, it must implement {IERC721Receiver-onERC721Received}, which is called upon a safe transfer.\n Emits a {Transfer} event."
            },
            "functionSelector": "b88d4fde",
            "implemented": false,
            "kind": "function",
            "modifiers": [],
            "name": "safeTransferFrom",
            "nameLocation": "1818:16:11",
            "parameters": {
              "id": 22465,
              "nodeType": "ParameterList",
              "parameters": [
                {
                  "constant": false,
                  "id": 22458,
                  "mutability": "mutable",
                  "name": "from",
                  "nameLocation": "1852:4:11",
                  "nodeType": "VariableDeclaration",
                  "scope": 22467,
                  "src": "1844:12:11",
                  "stateVariable": false,
                  "storageLocation": "default",
                  "typeDescriptions": {
                    "typeIdentifier": "t_address",
                    "typeString": "address"
                  },
                  "typeName": {
                    "id": 22457,
                    "name": "address",
                    "nodeType": "ElementaryTypeName",
                    "src": "1844:7:11",
                    "stateMutability": "nonpayable",
                    "typeDescriptions": {
                      "typeIdentifier": "t_address",
                      "typeString": "address"
                    }
                  },
                  "visibility": "internal"
                },
                {
                  "constant": false,
                  "id": 22460,
                  "mutability": "mutable",
                  "name": "to",
                  "nameLocation": "1874:2:11",
                  "nodeType": "VariableDeclaration",
                  "scope": 22467,
                  "src": "1866:10:11",
                  "stateVariable": false,
                  "storageLocation": "default",
                  "typeDescriptions": {
                    "typeIdentifier": "t_address",
                    "typeString": "address"
                  },
                  "typeName": {
                    "id": 22459,
                    "name": "address",
                    "nodeType": "ElementaryTypeName",
                    "src": "1866:7:11",
                    "stateMutability": "nonpayable",
                    "typeDescriptions": {
                      "typeIdentifier": "t_address",
                      "typeString": "address"
                    }
                  },
                  "visibility": "internal"
                },
                {
                  "constant": false,
                  "id": 22462,
                  "mutability": "mutable",
                  "name": "tokenId",
                  "nameLocation": "1894:7:11",
                  "nodeType": "VariableDeclaration",
                  "scope": 22467,
                  "src": "1886:15:11",
                  "stateVariable": false,
                  "storageLocation": "default",
                  "typeDescriptions": {
                    "typeIdentifier": "t_uint256",
                    "typeString": "uint256"
                  },
                  "typeName": {
                    "id": 22461,
                    "name": "uint256",
                    "nodeType": "ElementaryTypeName",
                    "src": "1886:7:11",
                    "typeDescriptions": {
                      "typeIdentifier": "t_uint256",
                      "typeString": "uint256"
                    }
                  },
                  "visibility": "internal"
                },
                {
                  "constant": false,
                  "id": 22464,
                  "mutability": "mutable",
                  "name": "data",
                  "nameLocation": "1926:4:11",
                  "nodeType": "VariableDeclaration",
                  "scope": 22467,
                  "src": "1911:19:11",
                  "stateVariable": false,
                  "storageLocation": "calldata",
                  "typeDescriptions": {
                    "typeIdentifier": "t_bytes_calldata_ptr",
                    "typeString": "bytes"
                  },
                  "typeName": {
                    "id": 22463,
                    "name": "bytes",
                    "nodeType": "ElementaryTypeName",
                    "src": "1911:5:11",
                    "typeDescriptions": {
                      "typeIdentifier": "t_bytes_storage_ptr",
                      "typeString": "bytes"
                    }
                  },
                  "visibility": "internal"
                }
              ],
              "src": "1834:102:11"
            },
            "returnParameters": {
              "id": 22466,
              "nodeType": "ParameterList",
              "parameters": [],
              "src": "1945:0:11"
            },
            "scope": 22522,
            "stateMutability": "nonpayable",
            "virtual": false,
            "visibility": "external"
          },
          {
            "id": 22477,
            "nodeType": "FunctionDefinition",
            "src": "2644:108:11",
            "documentation": {
              "id": 22468,
              "nodeType": "StructuredDocumentation",
              "src": "1952:687:11",
              "text": " @dev Safely transfers `tokenId` token from `from` to `to`, checking first that contract recipients\n are aware of the ERC721 protocol to prevent tokens from being forever locked.\n Requirements:\n - `from` cannot be the zero address.\n - `to` cannot be the zero address.\n - `tokenId` token must exist and be owned by `from`.\n - If the caller is not `from`, it must have been allowed to move this token by either {approve} or {setApprovalForAll}.\n - If `to` refers to a smart contract, it must implement {IERC721Receiver-onERC721Received}, which is called upon a safe transfer.\n Emits a {Transfer} event."
            },
            "functionSelector": "42842e0e",
            "implemented": false,
            "kind": "function",
            "modifiers": [],
            "name": "safeTransferFrom",
            "nameLocation": "2653:16:11",
            "parameters": {
              "id": 22475,
              "nodeType": "ParameterList",
              "parameters": [
                {
                  "constant": false,
                  "id": 22470,
                  "mutability": "mutable",
                  "name": "from",
                  "nameLocation": "2687:4:11",
                  "nodeType": "VariableDeclaration",
                  "scope": 22477,
                  "src": "2679:12:11",
                  "stateVariable": false,
                  "storageLocation": "default",
                  "typeDescriptions": {
                    "typeIdentifier": "t_address",
                    "typeString": "address"
                  },
                  "typeName": {
                    "id": 22469,
                    "name": "address",
                    "nodeType": "ElementaryTypeName",
                    "src": "2679:7:11",
                    "stateMutability": "nonpayable",
                    "typeDescriptions": {
                      "typeIdentifier": "t_address",
                      "typeString": "address"
                    }
                  },
                  "visibility": "internal"
                },
                {
                  "constant": false,
                  "id": 22472,
                  "mutability": "mutable",
                  "name": "to",
                  "nameLocation": "2709:2:11",
                  "nodeType": "VariableDeclaration",
                  "scope": 22477,
                  "src": "2701:10:11",
                  "stateVariable": false,
                  "storageLocation": "default",
                  "typeDescriptions": {
                    "typeIdentifier": "t_address",
                    "typeString": "address"
                  },
                  "typeName": {
                    "id": 22471,
                    "name": "address",
                    "nodeType": "ElementaryTypeName",
                    "src": "2701:7:11",
                    "stateMutability": "nonpayable",
                    "typeDescriptions": {
                      "typeIdentifier": "t_address",
                      "typeString": "address"
                    }
                  },
                  "visibility": "internal"
                },
                {
                  "constant": false,
                  "id": 22474,
                  "mutability": "mutable",
                  "name": "tokenId",
                  "nameLocation": "2729:7:11",
                  "nodeType": "VariableDeclaration",
                  "scope": 22477,
                  "src": "2721:15:11",
                  "stateVariable": false,
                  "storageLocation": "default",
                  "typeDescriptions": {
                    "typeIdentifier": "t_uint256",
                    "typeString": "uint256"
                  },
                  "typeName": {
                    "id": 22473,
                    "name": "uint256",
                    "nodeType": "ElementaryTypeName",
                    "src": "2721:7:11",
                    "typeDescriptions": {
                      "typeIdentifier": "t_uint256",
                      "typeString": "uint256"
                    }
                  },
                  "visibility": "internal"
                }
              ],
              "src": "2669:73:11"
            },
            "returnParameters": {
              "id": 22476,
              "nodeType": "ParameterList",
              "parameters": [],
              "src": "2751:0:11"
            },
            "scope": 22522,
            "stateMutability": "nonpayable",
            "virtual": false,
            "visibility": "external"
          },
          {
            "id": 22487,
            "nodeType": "FunctionDefinition",
            "src": "3267:104:11",
            "documentation": {
              "id": 22478,
              "nodeType": "StructuredDocumentation",
              "src": "2758:504:11",
              "text": " @dev Transfers `tokenId` token from `from` to `to`.\n WARNING: Usage of this method is discouraged, use {safeTransferFrom} whenever possible.\n Requirements:\n - `from` cannot be the zero address.\n - `to` cannot be the zero address.\n - `tokenId` token must be owned by `from`.\n - If the caller is not `from`, it must be approved to move this token by either {approve} or {setApprovalForAll}.\n Emits a {Transfer} event."
            },
            "functionSelector": "23b872dd",
            "implemented": false,
            "kind": "function",
            "modifiers": [],
            "name": "transferFrom",
            "nameLocation": "3276:12:11",
            "parameters": {
              "id": 22485,
              "nodeType": "ParameterList",
              "parameters": [
                {
                  "constant": false,
                  "id": 22480,
                  "mutability": "mutable",
                  "name": "from",
                  "nameLocation": "3306:4:11",
                  "nodeType": "VariableDeclaration",
                  "scope": 22487,
                  "src": "3298:12:11",
                  "stateVariable": false,
                  "storageLocation": "default",
                  "typeDescriptions": {
                    "typeIdentifier": "t_address",
                    "typeString": "address"
                  },
                  "typeName": {
                    "id": 22479,
                    "name": "address",
                    "nodeType": "ElementaryTypeName",
                    "src": "3298:7:11",
                    "stateMutability": "nonpayable",
                    "typeDescriptions": {
                      "typeIdentifier": "t_address",
                      "typeString": "address"
                    }
                  },
                  "visibility": "internal"
                },
                {
                  "constant": false,
                  "id": 22482,
                  "mutability": "mutable",
                  "name": "to",
                  "nameLocation": "3328:2:11",
                  "nodeType": "VariableDeclaration",
                  "scope": 22487,
                  "src": "3320:10:11",
                  "stateVariable": false,
                  "storageLocation": "default",
                  "typeDescriptions": {
                    "typeIdentifier": "t_address",
                    "typeString": "address"
                  },
                  "typeName": {
                    "id": 22481,
                    "name": "address",
                    "nodeType": "ElementaryTypeName",
                    "src": "3320:7:11",
                    "stateMutability": "nonpayable",
                    "typeDescriptions": {
                      "typeIdentifier": "t_address",
                      "typeString": "address"
                    }
                  },
                  "visibility": "internal"
                },
                {
                  "constant": false,
                  "id": 22484,
                  "mutability": "mutable",
                  "name": "tokenId",
                  "nameLocation": "3348:7:11",
                  "nodeType": "VariableDeclaration",
                  "scope": 22487,
                  "src": "3340:15:11",
                  "stateVariable": false,
                  "storageLocation": "default",
                  "typeDescriptions": {
                    "typeIdentifier": "t_uint256",
                    "typeString": "uint256"
                  },
                  "typeName": {
                    "id": 22483,
                    "name": "uint256",
                    "nodeType": "ElementaryTypeName",
                    "src": "3340:7:11",
                    "typeDescriptions": {
                      "typeIdentifier": "t_uint256",
                      "typeString": "uint256"
                    }
                  },
                  "visibility": "internal"
                }
              ],
              "src": "3288:73:11"
            },
            "returnParameters": {
              "id": 22486,
              "nodeType": "ParameterList",
              "parameters": [],
              "src": "3370:0:11"
            },
            "scope": 22522,
            "stateMutability": "nonpayable",
            "virtual": false,
            "visibility": "external"
          },
          {
            "id": 22495,
            "nodeType": "FunctionDefinition",
            "src": "3834:55:11",
            "documentation": {
              "id": 22488,
              "nodeType": "StructuredDocumentation",
              "src": "3377:452:11",
              "text": " @dev Gives permission to `to` to transfer `tokenId` token to another account.\n The approval is cleared when the token is transferred.\n Only a single account can be approved at a time, so approving the zero address clears previous approvals.\n Requirements:\n - The caller must own the token or be an approved operator.\n - `tokenId` must exist.\n Emits an {Approval} event."
            },
            "functionSelector": "095ea7b3",
            "implemented": false,
            "kind": "function",
            "modifiers": [],
            "name": "approve",
            "nameLocation": "3843:7:11",
            "parameters": {
              "id": 22493,
              "nodeType": "ParameterList",
              "parameters": [
                {
                  "constant": false,
                  "id": 22490,
                  "mutability": "mutable",
                  "name": "to",
                  "nameLocation": "3859:2:11",
                  "nodeType": "VariableDeclaration",
                  "scope": 22495,
                  "src": "3851:10:11",
                  "stateVariable": false,
                  "storageLocation": "default",
                  "typeDescriptions": {
                    "typeIdentifier": "t_address",
                    "typeString": "address"
                  },
                  "typeName": {
                    "id": 22489,
                    "name": "address",
                    "nodeType": "ElementaryTypeName",
                    "src": "3851:7:11",
                    "stateMutability": "nonpayable",
                    "typeDescriptions": {
                      "typeIdentifier": "t_address",
                      "typeString": "address"
                    }
                  },
                  "visibility": "internal"
                },
                {
                  "constant": false,
                  "id": 22492,
                  "mutability": "mutable",
                  "name": "tokenId",
                  "nameLocation": "3871:7:11",
                  "nodeType": "VariableDeclaration",
                  "scope": 22495,
                  "src": "3863:15:11",
                  "stateVariable": false,
                  "storageLocation": "default",
                  "typeDescriptions": {
                    "typeIdentifier": "t_uint256",
                    "typeString": "uint256"
                  },
                  "typeName": {
                    "id": 22491,
                    "name": "uint256",
                    "nodeType": "ElementaryTypeName",
                    "src": "3863:7:11",
                    "typeDescriptions": {
                      "typeIdentifier": "t_uint256",
                      "typeString": "uint256"
                    }
                  },
                  "visibility": "internal"
                }
              ],
              "src": "3850:29:11"
            },
            "returnParameters": {
              "id": 22494,
              "nodeType": "ParameterList",
              "parameters": [],
              "src": "3888:0:11"
            },
            "scope": 22522,
            "stateMutability": "nonpayable",
            "virtual": false,
            "visibility": "external"
          },
          {
            "id": 22503,
            "nodeType": "FunctionDefinition",
            "src": "4209:70:11",
            "documentation": {
              "id": 22496,
              "nodeType": "StructuredDocumentation",
              "src": "3895:309:11",
              "text": " @dev Approve or remove `operator` as an operator for the caller.\n Operators can call {transferFrom} or {safeTransferFrom} for any token owned by the caller.\n Requirements:\n - The `operator` cannot be the caller.\n Emits an {ApprovalForAll} event."
            },
            "functionSelector": "a22cb465",
            "implemented": false,
            "kind": "function",
            "modifiers": [],
            "name": "setApprovalForAll",
            "nameLocation": "4218:17:11",
            "parameters": {
              "id": 22501,
              "nodeType": "ParameterList",
              "parameters": [
                {
                  "constant": false,
                  "id": 22498,
                  "mutability": "mutable",
                  "name": "operator",
                  "nameLocation": "4244:8:11",
                  "nodeType": "VariableDeclaration",
                  "scope": 22503,
                  "src": "4236:16:11",
                  "stateVariable": false,
                  "storageLocation": "default",
                  "typeDescriptions": {
                    "typeIdentifier": "t_address",
                    "typeString": "address"
                  },
                  "typeName": {
                    "id": 22497,
                    "name": "address",
                    "nodeType": "ElementaryTypeName",
                    "src": "4236:7:11",
                    "stateMutability": "nonpayable",
                    "typeDescriptions": {
                      "typeIdentifier": "t_address",
                      "typeString": "address"
                    }
                  },
                  "visibility": "internal"
                },
                {
                  "constant": false,
                  "id": 22500,
                  "mutability": "mutable",
                  "name": "_approved",
                  "nameLocation": "4259:9:11",
                  "nodeType": "VariableDeclaration",
                  "scope": 22503,
                  "src": "4254:14:11",
                  "stateVariable": false,
                  "storageLocation": "default",
                  "typeDescriptions": {
                    "typeIdentifier": "t_bool",
                    "typeString": "bool"
                  },
                  "typeName": {
                    "id": 22499,
                    "name": "bool",
                    "nodeType": "ElementaryTypeName",
                    "src": "4254:4:11",
                    "typeDescriptions": {
                      "typeIdentifier": "t_bool",
                      "typeString": "bool"
                    }
                  },
                  "visibility": "internal"
                }
              ],
              "src": "4235:34:11"
            },
            "returnParameters": {
              "id": 22502,
              "nodeType": "ParameterList",
              "parameters": [],
              "src": "4278:0:11"
            },
            "scope": 22522,
            "stateMutability": "nonpayable",
            "virtual": false,
            "visibility": "external"
          },
          {
            "id": 22511,
            "nodeType": "FunctionDefinition",
            "src": "4429:79:11",
            "documentation": {
              "id": 22504,
              "nodeType": "StructuredDocumentation",
              "src": "4285:139:11",
              "text": " @dev Returns the account approved for `tokenId` token.\n Requirements:\n - `tokenId` must exist."
            },
            "functionSelector": "081812fc",
            "implemented": false,
            "kind": "function",
            "modifiers": [],
            "name": "getApproved",
            "nameLocation": "4438:11:11",
            "parameters": {
              "id": 22507,
              "nodeType": "ParameterList",
              "parameters": [
                {
                  "constant": false,
                  "id": 22506,
                  "mutability": "mutable",
                  "name": "tokenId",
                  "nameLocation": "4458:7:11",
                  "nodeType": "VariableDeclaration",
                  "scope": 22511,
                  "src": "4450:15:11",
                  "stateVariable": false,
                  "storageLocation": "default",
                  "typeDescriptions": {
                    "typeIdentifier": "t_uint256",
                    "typeString": "uint256"
                  },
                  "typeName": {
                    "id": 22505,
                    "name": "uint256",
                    "nodeType": "ElementaryTypeName",
                    "src": "4450:7:11",
                    "typeDescriptions": {
                      "typeIdentifier": "t_uint256",
                      "typeString": "uint256"
                    }
                  },
                  "visibility": "internal"
                }
              ],
              "src": "4449:17:11"
            },
            "returnParameters": {
              "id": 22510,
              "nodeType": "ParameterList",
              "parameters": [
                {
                  "constant": false,
                  "id": 22509,
                  "mutability": "mutable",
                  "name": "operator",
                  "nameLocation": "4498:8:11",
                  "nodeType": "VariableDeclaration",
                  "scope": 22511,
                  "src": "4490:16:11",
                  "stateVariable": false,
                  "storageLocation": "default",
                  "typeDescriptions": {
                    "typeIdentifier": "t_address",
                    "typeString": "address"
                  },
                  "typeName": {
                    "id": 22508,
                    "name": "address",
                    "nodeType": "ElementaryTypeName",
                    "src": "4490:7:11",
                    "stateMutability": "nonpayable",
                    "typeDescriptions": {
                      "typeIdentifier": "t_address",
                      "typeString": "address"
                    }
                  },
                  "visibility": "internal"
                }
              ],
              "src": "4489:18:11"
            },
            "scope": 22522,
            "stateMutability": "view",
            "virtual": false,
            "visibility": "external"
          },
          {
            "id": 22521,
            "nodeType": "FunctionDefinition",
            "src": "4657:88:11",
            "documentation": {
              "id": 22512,
              "nodeType": "StructuredDocumentation",
              "src": "4514:138:11",
              "text": " @dev Returns if the `operator` is allowed to manage all of the assets of `owner`.\n See {setApprovalForAll}"
            },
            "functionSelector": "e985e9c5",
            "implemented": false,
            "kind": "function",
            "modifiers": [],
            "name": "isApprovedForAll",
            "nameLocation": "4666:16:11",
            "parameters": {
              "id": 22517,
              "nodeType": "ParameterList",
              "parameters": [
                {
                  "constant": false,
                  "id": 22514,
                  "mutability": "mutable",
                  "name": "owner",
                  "nameLocation": "4691:5:11",
                  "nodeType": "VariableDeclaration",
                  "scope": 22521,
                  "src": "4683:13:11",
                  "stateVariable": false,
                  "storageLocation": "default",
                  "typeDescriptions": {
                    "typeIdentifier": "t_address",
                    "typeString": "address"
                  },
                  "typeName": {
                    "id": 22513,
                    "name": "address",
                    "nodeType": "ElementaryTypeName",
                    "src": "4683:7:11",
                    "stateMutability": "nonpayable",
                    "typeDescriptions": {
                      "typeIdentifier": "t_address",
                      "typeString": "address"
                    }
                  },
                  "visibility": "internal"
                },
                {
                  "constant": false,
                  "id": 22516,
                  "mutability": "mutable",
                  "name": "operator",
                  "nameLocation": "4706:8:11",
                  "nodeType": "VariableDeclaration",
                  "scope": 22521,
                  "src": "4698:16:11",
                  "stateVariable": false,
                  "storageLocation": "default",
                  "typeDescriptions": {
                    "typeIdentifier": "t_address",
                    "typeString": "address"
                  },
                  "typeName": {
                    "id": 22515,
                    "name": "address",
                    "nodeType": "ElementaryTypeName",
                    "src": "4698:7:11",
                    "stateMutability": "nonpayable",
                    "typeDescriptions": {
                      "typeIdentifier": "t_address",
                      "typeString": "address"
                    }
                  },
                  "visibility": "internal"
                }
              ],
              "src": "4682:33:11"
            },
            "returnParameters": {
              "id": 22520,
              "nodeType": "ParameterList",
              "parameters": [
                {
                  "constant": false,
                  "id": 22519,
                  "mutability": "mutable",
                  "name": "",
                  "nameLocation": "-1:-1:-1",
                  "nodeType": "VariableDeclaration",
                  "scope": 22521,
                  "src": "4739:4:11",
                  "stateVariable": false,
                  "storageLocation": "default",
                  "typeDescriptions": {
                    "typeIdentifier": "t_bool",
                    "typeString": "bool"
                  },
                  "typeName": {
                    "id": 22518,
                    "name": "bool",
                    "nodeType": "ElementaryTypeName",
                    "src": "4739:4:11",
                    "typeDescriptions": {
                      "typeIdentifier": "t_bool",
                      "typeString": "bool"
                    }
                  },
                  "visibility": "internal"
                }
              ],
              "src": "4738:6:11"
            },
            "scope": 22522,
            "stateMutability": "view",
            "virtual": false,
            "visibility": "external"
          }
        ],
        "abstract": false,
        "baseContracts": [
          {
            "baseName": {
              "id": 22411,
              "name": "IERC165",
              "nodeType": "IdentifierPath",
              "referencedDeclaration": 23181,
              "src": "271:7:11"
            },
            "id": 22412,
            "nodeType": "InheritanceSpecifier",
            "src": "271:7:11"
          }
        ],
        "canonicalName": "IERC721",
        "contractDependencies": [],
        "contractKind": "interface",
        "documentation": {
          "id": 22410,
          "nodeType": "StructuredDocumentation",
          "src": "182:67:11",
          "text": " @dev Required interface of an ERC721 compliant contract."
        },
        "fullyImplemented": false,
        "linearizedBaseContracts": [
          22522,
          23181
        ],
        "name": "IERC721",
        "nameLocation": "260:7:11",
        "scope": 22523,
        "usedErrors": []
      }
    ],
    "license": "MIT"
  },
  "id": 11
}