{
  "abi": [
    {
      "anonymous": false,
      "inputs": [
        {
          "indexed": true,
          "internalType": "address",
          "name": "owner",
          "type": "address"
        },
        {
          "indexed": true,
          "internalType": "address",
          "name": "approved",
          "type": "address"
        },
        {
          "indexed": true,
          "internalType": "uint256",
          "name": "tokenId",
          "type": "uint256"
        }
      ],
      "name": "Approval",
      "type": "event"
    },
    {
      "anonymous": false,
      "inputs": [
        {
          "indexed": true,
          "internalType": "address",
          "name": "owner",
          "type": "address"
        },
        {
          "indexed": true,
          "internalType": "address",
          "name": "operator",
          "type": "address"
        },
        {
          "indexed": false,
          "internalType": "bool",
          "name": "approved",
          "type": "bool"
        }
      ],
      "name": "ApprovalForAll",
      "type": "event"
    },
    {
      "anonymous": false,
      "inputs": [
        {
          "indexed": true,
          "internalType": "address",
          "name": "from",
          "type": "address"
        },
        {
          "indexed": true,
          "internalType": "address",
          "name": "to",
          "type": "address"
        },
        {
          "indexed": true,
          "internalType": "uint256",
          "name": "tokenId",
          "type": "uint256"
        }
      ],
      "name": "Transfer",
      "type": "event"
    },
    {
      "inputs": [
        {
          "internalType": "address",
          "name": "to",
          "type": "address"
        },
        {
          "internalType": "uint256",
          "name": "tokenId",
          "type": "uint256"
        }
      ],
      "name": "approve",
      "outputs": [],
      "stateMutability": "nonpayable",
      "type": "function"
    },
    {
      "inputs": [
        {
          "internalType": "address",
          "name": "owner",
          "type": "address"
        }
      ],
      "name": "balanceOf",
      "outputs": [
        {
          "internalType": "uint256",
          "name": "balance",
          "type": "uint256"
        }
      ],
      "stateMutability": "view",
      "type": "function"
    },
    {
      "inputs": [
        {
          "internalType": "uint256",
          "name": "tokenId",
          "type": "uint256"
        }
      ],
      "name": "getApproved",
      "outputs": [
        {
          "internalType": "address",
          "name": "operator",
          "type": "address"
        }
      ],
      "stateMutability": "view",
      "type": "function"
    },
    {
      "inputs": [
        {
          "internalType": "address",
          "name": "owner",
          "type": "address"
        },
        {
          "internalType": "address",
          "name": "operator",
          "type": "address"
        }
      ],
      "name": "isApprovedForAll",
      "outputs": [
        {
          "internalType": "bool",
          "name": "",
          "type": "bool"
        }
      ],
      "stateMutability": "view",
      "type": "function"
    },
    {
      "inputs": [],
      "name": "name",
      "outputs": [
        {
          "internalType": "string",
          "name": "",
          "type": "string"
        }
      ],
      "stateMutability": "view",
      "type": "function"
    },
    {
      "inputs": [
        {
          "internalType": "uint256",
          "name": "tokenId",
          "type": "uint256"
        }
      ],
      "name": "ownerOf",
      "outputs": [
        {
          "internalType": "address",
          "name": "owner",
          "type": "address"
        }
      ],
      "stateMutability": "view",
      "type": "function"
    },
    {
      "inputs": [
        {
          "internalType": "address",
          "name": "from",
          "type": "address"
        },
        {
          "internalType": "address",
          "name": "to",
          "type": "address"
        },
        {
          "internalType": "uint256",
          "name": "tokenId",
          "type": "uint256"
        }
      ],
      "name": "safeTransferFrom",
      "outputs": [],
      "stateMutability": "nonpayable",
      "type": "function"
    },
    {
      "inputs": [
        {
          "internalType": "address",
          "name": "from",
          "type": "address"
        },
        {
          "internalType": "address",
          "name": "to",
          "type": "address"
        },
        {
          "internalType": "uint256",
          "name": "tokenId",
          "type": "uint256"
        },
        {
          "internalType": "bytes",
          "name": "data",
          "type": "bytes"
        }
      ],
      "name": "safeTransferFrom",
      "outputs": [],
      "stateMutability": "nonpayable",
      "type": "function"
    },
    {
      "inputs": [
        {
          "internalType": "address",
          "name": "operator",
          "type": "address"
        },
        {
          "internalType": "bool",
          "name": "_approved",
          "type": "bool"
        }
      ],
      "name": "setApprovalForAll",
      "outputs": [],
      "stateMutability": "nonpayable",
      "type": "function"
    },
    {
      "inputs": [
        {
          "internalType": "bytes4",
          "name": "interfaceId",
          "type": "bytes4"
        }
      ],
      "name": "supportsInterface",
      "outputs": [
        {
          "internalType": "bool",
          "name": "",
          "type": "bool"
        }
      ],
      "stateMutability": "view",
      "type": "function"
    },
    {
      "inputs": [],
      "name": "symbol",
      "outputs": [
        {
          "internalType": "string",
          "name": "",
          "type": "string"
        }
      ],
      "stateMutability": "view",
      "type": "function"
    },
    {
      "inputs": [
        {
          "internalType": "uint256",
          "name": "tokenId",
          "type": "uint256"
        }
      ],
      "name": "tokenURI",
      "outputs": [
        {
          "internalType": "string",
          "name": "",
          "type": "string"
        }
      ],
      "stateMutability": "view",
      "type": "function"
    },
    {
      "inputs": [
        {
          "internalType": "address",
          "name": "from",
          "type": "address"
        },
        {
          "internalType": "address",
          "name": "to",
          "type": "address"
        },
        {
          "internalType": "uint256",
          "name": "tokenId",
          "type": "uint256"
        }
      ],
      "name": "transferFrom",
      "outputs": [],
      "stateMutability": "nonpayable",
      "type": "function"
    }
  ],
  "bytecode": {
    "object": "0x",
    "sourceMap": "",
    "linkReferences": {}
  },
  "deployedBytecode": {
    "object": "0x",
    "sourceMap": "",
    "linkReferences": {}
  },
  "methodIdentifiers": {
    "approve(address,uint256)": "095ea7b3",
    "balanceOf(address)": "70a08231",
    "getApproved(uint256)": "081812fc",
    "isApprovedForAll(address,address)": "e985e9c5",
    "name()": "06fdde03",
    "ownerOf(uint256)": "6352211e",
    "safeTransferFrom(address,address,uint256)": "42842e0e",
    "safeTransferFrom(address,address,uint256,bytes)": "b88d4fde",
    "setApprovalForAll(address,bool)": "a22cb465",
    "supportsInterface(bytes4)": "01ffc9a7",
    "symbol()": "95d89b41",
    "tokenURI(uint256)": "c87b56dd",
    "transferFrom(address,address,uint256)": "23b872dd"
  },
  "ast": {
    "absolutePath": "lib/openzeppelin-contracts/contracts/token/ERC721/extensions/IERC721Metadata.sol",
    "id": 22568,
    "exportedSymbols": {
      "IERC165": [
        23181
      ],
      "IERC721": [
        22522
      ],
      "IERC721Metadata": [
        22567
      ]
    },
    "nodeType": "SourceUnit",
    "src": "112:649:13",
    "nodes": [
      {
        "id": 22542,
        "nodeType": "PragmaDirective",
        "src": "112:23:13",
        "literals": [
          "solidity",
          "^",
          "0.8",
          ".0"
        ]
      },
      {
        "id": 22543,
        "nodeType": "ImportDirective",
        "src": "137:24:13",
        "absolutePath": "lib/openzeppelin-contracts/contracts/token/ERC721/IERC721.sol",
        "file": "../IERC721.sol",
        "nameLocation": "-1:-1:-1",
        "scope": 22568,
        "sourceUnit": 22523,
        "symbolAliases": [],
        "unitAlias": ""
      },
      {
        "id": 22567,
        "nodeType": "ContractDefinition",
        "src": "297:463:13",
        "nodes": [
          {
            "id": 22552,
            "nodeType": "FunctionDefinition",
            "src": "403:54:13",
            "documentation": {
              "id": 22547,
              "nodeType": "StructuredDocumentation",
              "src": "340:58:13",
              "text": " @dev Returns the token collection name."
            },
            "functionSelector": "06fdde03",
            "implemented": false,
            "kind": "function",
            "modifiers": [],
            "name": "name",
            "nameLocation": "412:4:13",
            "parameters": {
              "id": 22548,
              "nodeType": "ParameterList",
              "parameters": [],
              "src": "416:2:13"
            },
            "returnParameters": {
              "id": 22551,
              "nodeType": "ParameterList",
              "parameters": [
                {
                  "constant": false,
                  "id": 22550,
                  "mutability": "mutable",
                  "name": "",
                  "nameLocation": "-1:-1:-1",
                  "nodeType": "VariableDeclaration",
                  "scope": 22552,
                  "src": "442:13:13",
                  "stateVariable": false,
                  "storageLocation": "memory",
                  "typeDescriptions": {
                    "typeIdentifier": "t_string_memory_ptr",
                    "typeString": "string"
                  },
                  "typeName": {
                    "id": 22549,
                    "name": "string",
                    "nodeType": "ElementaryTypeName",
                    "src": "442:6:13",
                    "typeDescriptions": {
                      "typeIdentifier": "t_string_storage_ptr",
                      "typeString": "string"
                    }
                  },
                  "visibility": "internal"
                }
              ],
              "src": "441:15:13"
            },
            "scope": 22567,
            "stateMutability": "view",
            "virtual": false,
            "visibility": "external"
          },
          {
            "id": 22558,
            "nodeType": "FunctionDefinition",
            "src": "528:56:13",
            "documentation": {
              "id": 22553,
              "nodeType": "StructuredDocumentation",
              "src": "463:60:13",
              "text": " @dev Returns the token collection symbol."
            },
            "functionSelector": "95d89b41",
            "implemented": false,
            "kind": "function",
            "modifiers": [],
            "name": "symbol",
            "nameLocation": "537:6:13",
            "parameters": {
              "id": 22554,
              "nodeType": "ParameterList",
              "parameters": [],
              "src": "543:2:13"
            },
            "returnParameters": {
              "id": 22557,
              "nodeType": "ParameterList",
              "parameters": [
                {
                  "constant": false,
                  "id": 22556,
                  "mutability": "mutable",
                  "name": "",
                  "nameLocation": "-1:-1:-1",
                  "nodeType": "VariableDeclaration",
                  "scope": 22558,
                  "src": "569:13:13",
                  "stateVariable": false,
                  "storageLocation": "memory",
                  "typeDescriptions": {
                    "typeIdentifier": "t_string_memory_ptr",
                    "typeString": "string"
                  },
                  "typeName": {
                    "id": 22555,
                    "name": "string",
                    "nodeType": "ElementaryTypeName",
                    "src": "569:6:13",
                    "typeDescriptions": {
                      "typeIdentifier": "t_string_storage_ptr",
                      "typeString": "string"
                    }
                  },
                  "visibility": "internal"
                }
              ],
              "src": "568:15:13"
            },
            "scope": 22567,
            "stateMutability": "view",
            "virtual": false,
            "visibility": "external"
          },
          {
            "id": 22566,
            "nodeType": "FunctionDefinition",
            "src": "685:73:13",
            "documentation": {
              "id": 22559,
              "nodeType": "StructuredDocumentation",
              "src": "590:90:13",
              "text": " @dev Returns the Uniform Resource Identifier (URI) for `tokenId` token."
            },
            "functionSelector": "c87b56dd",
            "implemented": false,
            "kind": "function",
            "modifiers": [],
            "name": "tokenURI",
            "nameLocation": "694:8:13",
            "parameters": {
              "id": 22562,
              "nodeType": "ParameterList",
              "parameters": [
                {
                  "constant": false,
                  "id": 22561,
                  "mutability": "mutable",
                  "name": "tokenId",
                  "nameLocation": "711:7:13",
                  "nodeType": "VariableDeclaration",
                  "scope": 22566,
                  "src": "703:15:13",
                  "stateVariable": false,
                  "storageLocation": "default",
                  "typeDescriptions": {
                    "typeIdentifier": "t_uint256",
                    "typeString": "uint256"
                  },
                  "typeName": {
                    "id": 22560,
                    "name": "uint256",
                    "nodeType": "ElementaryTypeName",
                    "src": "703:7:13",
                    "typeDescriptions": {
                      "typeIdentifier": "t_uint256",
                      "typeString": "uint256"
                    }
                  },
                  "visibility": "internal"
                }
              ],
              "src": "702:17:13"
            },
            "returnParameters": {
              "id": 22565,
              "nodeType": "ParameterList",
              "parameters": [
                {
                  "constant": false,
                  "id": 22564,
                  "mutability": "mutable",
                  "name": "",
                  "nameLocation": "-1:-1:-1",
                  "nodeType": "VariableDeclaration",
                  "scope": 22566,
                  "src": "743:13:13",
                  "stateVariable": false,
                  "storageLocation": "memory",
                  "typeDescriptions": {
                    "typeIdentifier": "t_string_memory_ptr",
                    "typeString": "string"
                  },
                  "typeName": {
                    "id": 22563,
                    "name": "string",
                    "nodeType": "ElementaryTypeName",
                    "src": "743:6:13",
                    "typeDescriptions": {
                      "typeIdentifier": "t_string_storage_ptr",
                      "typeString": "string"
                    }
                  },
                  "visibility": "internal"
                }
              ],
              "src": "742:15:13"
            },
            "scope": 22567,
            "stateMutability": "view",
            "virtual": false,
            "visibility": "external"
          }
        ],
        "abstract": false,
        "baseContracts": [
          {
            "baseName": {
              "id": 22545,
              "name": "IERC721",
              "nodeType": "IdentifierPath",
              "referencedDeclaration": 22522,
              "src": "326:7:13"
            },
            "id": 22546,
            "nodeType": "InheritanceSpecifier",
            "src": "326:7:13"
          }
        ],
        "canonicalName": "IERC721Metadata",
        "contractDependencies": [],
        "contractKind": "interface",
        "documentation": {
          "id": 22544,
          "nodeType": "StructuredDocumentation",
          "src": "163:133:13",
          "text": " @title ERC-721 Non-Fungible Token Standard, optional metadata extension\n @dev See https://eips.ethereum.org/EIPS/eip-721"
        },
        "fullyImplemented": false,
        "linearizedBaseContracts": [
          22567,
          22522,
          23181
        ],
        "name": "IERC721Metadata",
        "nameLocation": "307:15:13",
        "scope": 22568,
        "usedErrors": []
      }
    ],
    "license": "MIT"
  },
  "id": 13
}