{
  "abi": [
    {
      "anonymous": false,
      "inputs": [
        {
          "indexed": true,
          "internalType": "bytes32",
          "name": "node",
          "type": "bytes32"
        },
        {
          "indexed": false,
          "internalType": "bytes",
          "name": "hash",
          "type": "bytes"
        }
      ],
      "name": "ContenthashChanged",
      "type": "event"
    },
    {
      "inputs": [
        {
          "internalType": "bytes32",
          "name": "node",
          "type": "bytes32"
        }
      ],
      "name": "contenthash",
      "outputs": [
        {
          "internalType": "bytes",
          "name": "",
          "type": "bytes"
        }
      ],
      "stateMutability": "view",
      "type": "function"
    }
  ],
  "bytecode": {
    "object": "0x",
    "sourceMap": "",
    "linkReferences": {}
  },
  "deployedBytecode": {
    "object": "0x",
    "sourceMap": "",
    "linkReferences": {}
  },
  "methodIdentifiers": {
    "contenthash(bytes32)": "bc1c58d1"
  },
  "ast": {
    "absolutePath": "node_modules/@le7el/web3_crs/contracts/resolver/profile/IContentHashResolver.sol",
    "id": 27596,
    "exportedSymbols": {
      "IContentHashResolver": [
        27595
      ]
    },
    "nodeType": "SourceUnit",
    "src": "32:362:40",
    "nodes": [
      {
        "id": 27580,
        "nodeType": "PragmaDirective",
        "src": "32:23:40",
        "literals": [
          "solidity",
          "^",
          "0.8",
          ".0"
        ]
      },
      {
        "id": 27595,
        "nodeType": "ContractDefinition",
        "src": "57:337:40",
        "nodes": [
          {
            "id": 27586,
            "nodeType": "EventDefinition",
            "src": "94:59:40",
            "anonymous": false,
            "name": "ContenthashChanged",
            "nameLocation": "100:18:40",
            "parameters": {
              "id": 27585,
              "nodeType": "ParameterList",
              "parameters": [
                {
                  "constant": false,
                  "id": 27582,
                  "indexed": true,
                  "mutability": "mutable",
                  "name": "node",
                  "nameLocation": "135:4:40",
                  "nodeType": "VariableDeclaration",
                  "scope": 27586,
                  "src": "119:20:40",
                  "stateVariable": false,
                  "storageLocation": "default",
                  "typeDescriptions": {
                    "typeIdentifier": "t_bytes32",
                    "typeString": "bytes32"
                  },
                  "typeName": {
                    "id": 27581,
                    "name": "bytes32",
                    "nodeType": "ElementaryTypeName",
                    "src": "119:7:40",
                    "typeDescriptions": {
                      "typeIdentifier": "t_bytes32",
                      "typeString": "bytes32"
                    }
                  },
                  "visibility": "internal"
                },
                {
                  "constant": false,
                  "id": 27584,
                  "indexed": false,
                  "mutability": "mutable",
                  "name": "hash",
                  "nameLocation": "147:4:40",
                  "nodeType": "VariableDeclaration",
                  "scope": 27586,
                  "src": "141:10:40",
                  "stateVariable": false,
                  "storageLocation": "default",
                  "typeDescriptions": {
                    "typeIdentifier": "t_bytes_memory_ptr",
                    "typeString": "bytes"
                  },
                  "typeName": {
                    "id": 27583,
                    "name": "bytes",
                    "nodeType": "ElementaryTypeName",
                    "src": "141:5:40",
                    "typeDescriptions": {
                      "typeIdentifier": "t_bytes_storage_ptr",
                      "typeString": "bytes"
                    }
                  },
                  "visibility": "internal"
                }
              ],
              "src": "118:34:40"
            }
          },
          {
            "id": 27594,
            "nodeType": "FunctionDefinition",
            "src": "320:72:40",
            "documentation": {
              "id": 27587,
              "nodeType": "StructuredDocumentation",
              "src": "159:156:40",
              "text": " Returns the contenthash associated with an CRS node.\n @param node The CRS node to query.\n @return The associated contenthash."
            },
            "functionSelector": "bc1c58d1",
            "implemented": false,
            "kind": "function",
            "modifiers": [],
            "name": "contenthash",
            "nameLocation": "329:11:40",
            "parameters": {
              "id": 27590,
              "nodeType": "ParameterList",
              "parameters": [
                {
                  "constant": false,
                  "id": 27589,
                  "mutability": "mutable",
                  "name": "node",
                  "nameLocation": "349:4:40",
                  "nodeType": "VariableDeclaration",
                  "scope": 27594,
                  "src": "341:12:40",
                  "stateVariable": false,
                  "storageLocation": "default",
                  "typeDescriptions": {
                    "typeIdentifier": "t_bytes32",
                    "typeString": "bytes32"
                  },
                  "typeName": {
                    "id": 27588,
                    "name": "bytes32",
                    "nodeType": "ElementaryTypeName",
                    "src": "341:7:40",
                    "typeDescriptions": {
                      "typeIdentifier": "t_bytes32",
                      "typeString": "bytes32"
                    }
                  },
                  "visibility": "internal"
                }
              ],
              "src": "340:14:40"
            },
            "returnParameters": {
              "id": 27593,
              "nodeType": "ParameterList",
              "parameters": [
                {
                  "constant": false,
                  "id": 27592,
                  "mutability": "mutable",
                  "name": "",
                  "nameLocation": "-1:-1:-1",
                  "nodeType": "VariableDeclaration",
                  "scope": 27594,
                  "src": "378:12:40",
                  "stateVariable": false,
                  "storageLocation": "memory",
                  "typeDescriptions": {
                    "typeIdentifier": "t_bytes_memory_ptr",
                    "typeString": "bytes"
                  },
                  "typeName": {
                    "id": 27591,
                    "name": "bytes",
                    "nodeType": "ElementaryTypeName",
                    "src": "378:5:40",
                    "typeDescriptions": {
                      "typeIdentifier": "t_bytes_storage_ptr",
                      "typeString": "bytes"
                    }
                  },
                  "visibility": "internal"
                }
              ],
              "src": "377:14:40"
            },
            "scope": 27595,
            "stateMutability": "view",
            "virtual": false,
            "visibility": "external"
          }
        ],
        "abstract": false,
        "baseContracts": [],
        "canonicalName": "IContentHashResolver",
        "contractDependencies": [],
        "contractKind": "interface",
        "fullyImplemented": false,
        "linearizedBaseContracts": [
          27595
        ],
        "name": "IContentHashResolver",
        "nameLocation": "67:20:40",
        "scope": 27596,
        "usedErrors": []
      }
    ],
    "license": "MIT"
  },
  "id": 40
}